consulta_endes — consulta_endes • ENDES.PE
…
      codificacion
      Codificación (UTF-8, latin1, etc.)

    Value

    archivo .sav o Data Frame (Segun parametro guardar)

    Examples

consulta_endes(periodo = 2012,codigo_modulo = '64',base = 'RECH1', 
guardar = FALSE, codificacion = "UTF-8")

#> # A tibble: 103,211 × 41
#>    HHID   HVIDX    HV101  HV102  HV103   HV104 HV105   HV106 HV107 HV108   HV109
#>    <chr>  <dbl> <dbl+lb> <dbl+> <dbl+> <dbl+l> <dbl> <dbl+l> <dbl> <dbl> <dbl+l>
#>  1 "    …     1 1 [Jefe] 1 [Sí] 1 [Sí] 1 [Hom…    44 3 [Sup…     2    13 5 [Sup…
#>  2 "    …     2 2 [Espo… 1 [Sí] 1 [Sí] 2 [Muj…    42 1 [Pri…     6     6 2 [Pri…
#>  3 "    …     3 3 [Hijo… 1 [Sí] 1 [Sí] 2 [Muj…    22 3 [Sup…     2    13 5 [Sup…
#>  4 "    …     4 3 [Hijo… 1 [Sí] 1 [Sí] 2 [Muj…    17 2 [Sec…     5    11 4 [Sec…
#>  5 "    …     5 3 [Hijo… 1 [Sí] 1 [Sí] 2 [Muj…    13 2 [Sec…     2     8 3 [Sec…
#>  6 "    …     1 1 [Jefe] 1 [Sí] 1 [Sí] 1 [Hom…    57 2 [Sec…     5    11 4 [Sec…
#>  7 "    …     2 2 [Espo… 1 [Sí] 1 [Sí] 2 [Muj…    57 1 [Pri…     5     5 1 [Pri…
#>  8 "    …     3 3 [Hijo… 1 [Sí] 1 [Sí] 2 [Muj…    27 3 [Sup…     3    14 5 [Sup…
#>  9 "    …     4 3 [Hijo… 1 [Sí] 1 [Sí] 2 [Muj…    20 3 [Sup…     1    12 5 [Sup…
#> 10 "    …     1 1 [Jefe] 1 [Sí] 0 [No] 1 [Hom…    25 2 [Sec…     4    10 3 [Sec…
#> # … with 103,201 more rows, and 30 more variables: HV110 <dbl+lbl>,
#> #   HV111 <dbl+lbl>, HV112 <dbl+lbl>, HV113 <dbl+lbl>, HV114 <dbl+lbl>,
#> #   HV115 <dbl+lbl>, HV116 <dbl+lbl>, HV117 <dbl+lbl>, HV118 <dbl+lbl>,
#> #   HV120 <dbl+lbl>, HV121 <dbl+lbl>, HV122 <dbl+lbl>, HV123 <dbl+lbl>,
#> #   HV124 <dbl+lbl>, HV125 <dbl+lbl>, HV126 <dbl+lbl>, HV127 <dbl+lbl>,
#> #   HV128 <dbl+lbl>, HV129 <dbl+lbl>, HV130 <dbl+lbl>, HV131 <dbl+lbl>,
#> #   HV132 <dbl+lbl>, HV133 <dbl+lbl>, HV134 <dbl+lbl>, HV135 <dbl+lbl>, …
…
